<?xml version="1.0" encoding="utf-8"?>
<!-- Generator: Adobe Illustrator 24.1.2, SVG Export Plug-In . SVG Version: 6.00 Build 0)  -->
<svg version="1.1" id="Calque_1" xmlns="http://www.w3.org/2000/svg" xmlns:xlink="http://www.w3.org/1999/xlink" x="0px" y="0px"
	 viewBox="0 0 512 512" style="enable-background:new 0 0 512 512;" xml:space="preserve">
<style type="text/css">
	.st0{fill:#1BB1CE;}
	.st1{fill:#FFFFFF;}
	.st2{display:none;}
	.st3{display:inline;fill:#FFFFFF;}
</style>
<circle class="st0" cx="256" cy="256" r="256"/>
<g>
	<path class="st1" d="M356.23,356.57c-11.55,8.3-22.87,16.45-34.47,24.79c-4.29-4.06-8.76-7.92-12.76-12.21
		c-2.42-2.6-4.54-2.98-7.78-1.75c-5.88,2.22-11.98,3.86-17.91,5.94c-0.99,0.35-2.13,1.61-2.34,2.64
		c-1.36,6.43-2.47,12.92-3.69,19.53c-14.19,0-28.3,0-42.6,0c-1.2-6.51-2.49-12.95-3.54-19.42c-0.28-1.75-1.05-2.46-2.6-2.94
		c-6.75-2.1-13.44-4.37-20.22-6.37c-1.01-0.3-2.67,0.1-3.46,0.81c-4.89,4.42-9.62,9.01-14.63,13.78
		c-11.48-8.25-22.93-16.48-34.5-24.8c2.94-6.02,5.71-11.87,8.67-17.62c0.88-1.72,0.76-2.89-0.41-4.42
		c-4.06-5.31-8.02-10.71-11.88-16.17c-1.17-1.66-2.38-2.17-4.35-1.86c-5.55,0.88-11.13,1.53-16.69,2.36
		c-1.79,0.27-2.73-0.08-3.36-2.04c-3.79-11.9-7.71-23.76-11.69-35.6c-0.58-1.73-0.26-2.56,1.37-3.38c5.1-2.57,10.09-5.36,15.19-7.94
		c1.63-0.83,2.42-1.73,2.38-3.73c-0.16-6.79-0.13-13.58-0.01-20.37c0.03-1.79-0.5-2.78-2.12-3.6c-5.19-2.62-10.26-5.46-15.45-8.07
		c-1.66-0.83-1.93-1.67-1.35-3.39c3.97-11.84,7.9-23.7,11.69-35.6c0.63-1.98,1.6-2.27,3.37-2.01c5.66,0.83,11.33,1.52,16.98,2.38
		c1.76,0.27,2.83-0.21,3.87-1.67c3.99-5.61,8.06-11.16,12.22-16.64c1.04-1.37,1.12-2.41,0.36-3.91c-2.97-5.86-5.81-11.78-8.79-17.86
		c11.52-8.29,22.91-16.48,34.49-24.81c4.86,4.61,9.66,9.1,14.37,13.68c1.15,1.11,2.12,1.6,3.79,1.04c6.69-2.27,13.43-4.4,20.18-6.5
		c1.56-0.49,2.3-1.22,2.58-2.96c1.03-6.41,2.3-12.77,3.52-19.36c14.1,0,28.21,0,42.62,0c1.18,6.35,2.47,12.78,3.5,19.25
		c0.3,1.86,1.14,2.58,2.78,3.1c6.65,2.07,13.29,4.21,19.9,6.43c1.57,0.53,2.63,0.28,3.83-0.89c4.7-4.6,9.52-9.09,14.46-13.78
		c11.5,8.27,22.88,16.45,34.47,24.78c-2.89,5.93-5.63,11.78-8.6,17.51c-0.95,1.83-0.8,3.06,0.43,4.67
		c4.01,5.23,7.92,10.54,11.7,15.94c1.23,1.75,2.51,2.31,4.58,1.98c4.97-0.8,9.98-1.41,14.97-2.08c1.32-0.18,2.66-0.31,4.14-0.48
		c3.13,9.49,6.19,18.77,9.25,28.04c1.09,3.31,2.1,6.65,3.29,9.92c0.57,1.58,0.29,2.41-1.27,3.2c-5.27,2.67-10.43,5.55-15.7,8.22
		c-1.5,0.76-2.02,1.69-1.99,3.36c0.09,6.89,0.1,13.77,0,20.66c-0.02,1.68,0.51,2.59,2,3.35c5.27,2.68,10.44,5.54,15.69,8.24
		c1.34,0.69,1.87,1.36,1.35,2.92c-4.13,12.4-8.2,24.82-12.29,37.23c-0.09,0.27-0.3,0.49-0.63,1.01c-5.52-0.75-11.21-1.29-16.79-2.35
		c-3.48-0.66-5.66,0.04-7.67,3.15c-3.36,5.2-7.33,10.01-10.86,15.11c-0.6,0.87-0.76,2.58-0.33,3.53
		C350.22,344.49,353.19,350.36,356.23,356.57z M269.46,386.36c1.11-5.98,2.11-11.79,3.33-17.55c0.21-0.98,1.17-2.27,2.06-2.57
		c10.37-3.46,20.81-6.73,31.2-10.14c1.5-0.49,2.43-0.23,3.55,0.86c4.21,4.13,8.55,8.15,12.98,12.34
		c7.34-5.28,14.55-10.47,21.82-15.69c-2.65-5.42-5.14-10.66-7.77-15.84c-0.74-1.46-0.79-2.49,0.25-3.88
		c6.45-8.61,12.81-17.29,19.13-26.01c0.93-1.28,1.8-1.64,3.38-1.41c5.82,0.88,11.66,1.57,17.63,2.35c2.8-8.52,5.53-16.86,8.3-25.3
		c-5.28-2.81-10.26-5.59-15.37-8.12c-1.77-0.88-2.26-1.93-2.24-3.81c0.09-10.47,0.09-20.95,0-31.43c-0.01-1.81,0.57-2.74,2.18-3.55
		c5.17-2.6,10.24-5.4,15.45-8.18c-2.83-8.58-5.57-16.91-8.33-25.29c-6.05,0.79-11.81,1.45-17.54,2.36
		c-1.75,0.28-2.62-0.27-3.57-1.59c-6.27-8.63-12.58-17.22-18.96-25.77c-1-1.34-1.12-2.37-0.34-3.88c2.68-5.23,5.19-10.54,7.81-15.91
		c-7.36-5.29-14.51-10.43-21.82-15.68c-4.38,4.15-8.71,8.15-12.92,12.29c-1.2,1.18-2.24,1.39-3.82,0.87
		c-10.2-3.36-20.43-6.65-30.68-9.88c-1.59-0.5-2.27-1.29-2.53-2.98c-0.78-5.07-1.72-10.12-2.78-15.14
		c-0.18-0.84-1.24-2.11-1.91-2.12c-8.42-0.15-16.84-0.1-25.45-0.1c-1.11,5.97-2.27,11.76-3.21,17.57c-0.26,1.62-0.97,2.29-2.42,2.74
		c-10.34,3.27-20.66,6.57-30.96,9.95c-1.51,0.49-2.43,0.21-3.54-0.88c-4.21-4.13-8.55-8.14-12.96-12.32
		c-7.35,5.29-14.57,10.48-21.84,15.7c2.64,5.41,5.14,10.65,7.77,15.83c0.74,1.45,0.8,2.48-0.25,3.88
		c-6.45,8.61-12.81,17.29-19.13,26.01c-0.93,1.28-1.8,1.65-3.38,1.41c-5.82-0.89-11.66-1.59-17.62-2.39
		c-2.8,8.55-5.54,16.88-8.31,25.32c5.12,2.71,9.95,5.36,14.88,7.83c1.94,0.97,2.8,2.06,2.77,4.41c-0.16,10.28-0.13,20.56-0.02,30.84
		c0.02,2.04-0.64,3.11-2.43,4.01c-5.08,2.55-10.07,5.31-15.2,8.03c2.82,8.57,5.57,16.9,8.33,25.31c6.05-0.81,11.81-1.47,17.53-2.4
		c1.76-0.28,2.62,0.28,3.57,1.59c6.27,8.63,12.58,17.23,18.96,25.77c1.01,1.35,1.1,2.38,0.33,3.88c-2.67,5.22-5.19,10.53-7.8,15.89
		c7.37,5.3,14.52,10.44,21.83,15.7c4.44-4.21,8.75-8.39,13.21-12.4c0.72-0.65,2.27-1.01,3.19-0.72c10.35,3.2,20.65,6.59,30.99,9.85
		c1.59,0.5,2.27,1.29,2.53,2.98c0.78,5.07,1.72,10.12,2.78,15.14c0.18,0.84,1.24,2.11,1.91,2.12
		C252.42,386.41,260.85,386.36,269.46,386.36z"/>
	<path class="st1" d="M255.8,353.76c-53.85-0.12-97.65-44.05-97.59-97.89c0.06-53.97,44.16-97.89,98.08-97.68
		c53.88,0.21,97.62,44.21,97.45,98.02C353.55,310.11,309.61,353.88,255.8,353.76z M172.22,228.03c11.25,0,22.3,0.06,33.35-0.08
		c1.27-0.02,2.75-0.93,3.76-1.84c2.73-2.47,5.24-5.18,7.86-7.76c2.9-2.86,6.37-4.28,10.46-4.28c18.9,0.02,37.81,0.02,56.71,0.01
		c4.09,0,7.56,1.45,10.45,4.32c2.47,2.46,4.79,5.12,7.47,7.32c1.44,1.18,3.51,2.19,5.32,2.23c9.98,0.21,19.97,0.11,29.95,0.09
		c0.69,0,1.38-0.15,2.12-0.23c-10.68-32.88-43.27-60.9-85.07-60.27C213.19,168.16,182.13,196.7,172.22,228.03z M172.37,283.93
		c7.97,27.68,38.03,60.26,83.15,60.49c45.52,0.23,75.91-32.46,84.05-60.48c-11.18,0-22.32-0.05-33.45,0.08
		c-1.18,0.01-2.54,0.93-3.48,1.8c-2.71,2.49-5.24,5.17-7.86,7.77c-2.89,2.87-6.36,4.31-10.45,4.3c-18.9-0.01-37.81-0.01-56.71,0
		c-4.09,0-7.56-1.44-10.46-4.3c-2.62-2.59-5.13-5.29-7.86-7.76c-1.01-0.91-2.48-1.81-3.76-1.83
		C194.5,283.87,183.46,283.93,172.37,283.93z M264.22,262.12c8.08,8.1,16.14,16.18,24.33,24.4c3.13-3.35,6.13-6.58,9.04-9.69
		c-7.69-7.82-15.49-16.18-23.78-24.03c-4.91-4.64-12.72-4.04-17.82,0.52c-1.59,1.42-2.99,3.05-4.62,4.42
		c-6.98,5.84-17.27,4.07-21.87-3.7c-3.48-5.89-2.49-12.86,2.68-18.07c3.99-4.03,8.08-7.95,12.73-12.52
		c-6.72,0-12.49-0.09-18.26,0.08c-1.09,0.03-2.3,0.97-3.18,1.79c-2.42,2.24-4.75,4.58-7.01,6.97c-3.32,3.53-7.31,5.15-12.18,5.1
		c-10.57-0.11-21.13-0.03-31.7-0.03c-1.03,0-2.06,0-3.04,0c-2.65,12.61-2.69,24.79,0.03,37.25c1.13,0,2.17,0,3.22,0
		c10.66,0,21.33,0.04,31.99-0.02c4.43-0.03,8.13,1.47,11.2,4.62c1.42,1.46,3.05,2.75,4.28,4.35c3.12,4.03,7.01,5.63,12.13,5.1
		c3.86-0.4,7.79-0.08,11.69-0.08c0.17-0.33,0.33-0.66,0.5-1c-1.96-1.57-3.92-3.14-5.52-4.42c2.3-2.54,4.28-4.73,6.46-7.14
		c3.73,3.78,7.32,7.44,10.95,11.06c0.59,0.59,1.36,1.4,2.06,1.41c6.04,0.11,12.08,0.06,18.11,0.06c0.1-0.24,0.19-0.48,0.29-0.72
		c-6.45-6.39-12.91-12.78-19.29-19.1C259.78,266.57,261.81,264.53,264.22,262.12z M342.38,237.35c-1.11,0-2.15,0-3.2,0
		c-10.67,0-21.34-0.04-32,0.02c-4.43,0.03-8.12-1.49-11.21-4.63c-2.31-2.35-4.49-4.88-7.06-6.92c-1.53-1.22-3.66-2.2-5.58-2.33
		c-4.83-0.33-9.76,0.41-14.52-0.22c-7.98-1.07-13.83,1.59-18.78,7.83c-3.41,4.3-7.77,7.85-11.6,11.83c-2.2,2.29-2.17,5.21-0.18,7.31
		c2.07,2.18,5.05,2.19,7.53,0c0.65-0.58,1.25-1.22,1.87-1.84c10.78-10.71,24.52-10.72,35.26-0.02c8.17,8.15,16.28,16.36,24.54,24.42
		c1.02,1,2.8,1.7,4.24,1.73c9.31,0.15,18.62,0.08,27.93,0.08c0.94,0,1.87,0,2.79,0C345.06,262.02,345.08,249.84,342.38,237.35z"/>
	<path class="st1" d="M225.42,193.13c-1.42-2.91-2.68-5.5-3.93-8.08c34.2-18.09,82.18-5.67,102.82,31.44
		c-2.47,1.45-4.96,2.9-7.78,4.55c-9.41-15.51-22.61-26.37-39.96-31.73C259.17,183.94,242.15,185.32,225.42,193.13z"/>
	<path class="st1" d="M207.85,205.16c-2.06-2.2-4.08-4.36-6.35-6.79c3.32-2.69,6.44-5.22,9.82-7.96c1.86,2.69,3.53,5.11,5.29,7.65
		C213.66,200.45,210.83,202.74,207.85,205.16z"/>
	<path class="st1" d="M290.89,316.53c1.54,2.65,2.99,5.14,4.44,7.64c-30.8,20.22-83.51,13.4-107.77-28.6
		c2.53-1.49,5.06-2.98,7.87-4.64c9.94,16.33,23.94,27.38,42.3,32.4C256.14,328.35,273.78,325.85,290.89,316.53z"/>
	<path class="st1" d="M306.75,304.09c2.27,2.13,4.42,4.15,6.8,6.38c-2.76,2.54-5.3,4.86-8.02,7.36c-2.06-2.55-3.93-4.86-5.85-7.24
		C302.1,308.37,304.35,306.29,306.75,304.09z"/>
</g>
<g class="st2">
	<path class="st3" d="M370.03,256c0,41.02,0,82.04,0,123.06c0,10.5-5.4,15.94-15.83,15.94c-63.69,0-127.37,0-191.06,0
		c-10.28,0-15.79-5.48-15.79-15.69c0-57.72,0.12-115.44-0.17-173.16c-0.03-6.41-2.39-12.8-3.58-19.22
		c-0.68-3.67-1.84-7.43-1.52-11.04c0.25-2.82,2.48-5.45,3.77-8.19c0.57-1.21,1.42-2.49,1.43-3.75c0.11-10.62,0.05-21.23,0.07-31.85
		c0.01-9.41,5.73-15.1,15.2-15.1c64.07-0.01,128.14-0.01,192.22,0c9.61,0,15.25,5.67,15.25,15.35
		C370.04,173.57,370.03,214.78,370.03,256z M216.76,334.69c0,3.29,0,6.22,0,9.34c-3.74,0-7.3,0.08-10.85-0.04
		c-1.52-0.05-2.22,0.49-2.7,1.89c-1.19,3.53-2.53,7.01-3.94,10.85c-5.71-5.25-11.23-10.21-16.59-15.33c-1.1-1.05-1.97-2.6-2.37-4.08
		c-1.67-6.16-3.13-12.39-4.66-18.59c-0.09,0.03-0.17,0.06-0.26,0.08c0,16.07,0,32.13,0,48.15c55.69,0,111.19,0,166.57,0
		c0-74.17,0-148.13,0-222.03c-55.66,0-111.09,0-166.77,0c0,1.19,0,2.23,0,3.26c0,15.34-0.17,30.69,0.09,46.03
		c0.09,5.11,1.28,10.2,1.99,15.45c13.59,0,26.49,0,39.48,0c0,3.19,0,6.11,0,9.24c-12.23,0-24.28,0-36.28,0
		c-0.1,0.38-0.22,0.57-0.18,0.72c2.42,10.12,4.82,20.24,7.37,30.33c0.16,0.61,1.51,1.31,2.31,1.32c7.05,0.1,14.11,0.06,21.16,0.06
		c1.89,0,3.78,0,5.66,0c0,3.28,0,6.14,0,9.26c-8.88,0-17.62,0-26.62,0c2.67,10.96,5.26,21.6,7.91,32.45c6.29,0,12.44,0,18.67,0
		c0,3.19,0,6.12,0,9.25c-5.46,0-10.74,0-16.37,0c2.61,10.89,5.15,21.51,7.75,32.35C210.7,334.69,213.58,334.69,216.76,334.69z
		 M351.26,135.68c0,80.36,0,160.5,0,240.65c-61.83,0-123.45,0-185.35,0c0-1.26,0-2.4,0-3.53c0-29.54,0.05-59.07-0.06-88.61
		c-0.01-3.71-0.59-7.47-1.33-11.12c-1.11-5.47-2.58-10.88-3.91-16.3c-1.16-4.74-2.35-9.47-3.53-14.21c-0.15,0.03-0.3,0.06-0.45,0.09
		c0,1.06,0,2.11,0,3.17c0,44.21,0,88.42,0,132.62c0,6.16,1.12,7.3,7.2,7.3c63.2,0,126.41,0,189.61,0c6.16,0,7.31-1.13,7.31-7.19
		c0-81.66,0-163.32,0-244.98c0-6.16-1.13-7.3-7.19-7.3c-63.2,0-126.41,0-189.61,0c-0.29,0-0.58,0-0.87,0
		c-4.98,0.01-6.43,1.42-6.44,6.31c-0.01,9.46,0,18.92,0,28.38c0,0.85,0,1.71,0,2.1c3.28,1.52,6.18,2.87,9.28,4.3
		c0-10.44,0-20.99,0-31.68C227.82,135.68,289.44,135.68,351.26,135.68z M195.4,340.32c0.91-3.55,3.15-6.46,2.14-10.54
		c-8.72-35.26-17.25-70.56-25.84-105.85c-2.37-9.72-4.75-19.44-7.17-29.38c-3.06,0.74-5.91,1.44-8.93,2.17
		c0.27,1.26,0.47,2.28,0.72,3.3c10.52,43.15,21.13,86.28,31.43,129.48C188.91,334.35,191.46,337.49,195.4,340.32z M153.35,187.7
		c3.06-0.76,5.9-1.47,8.96-2.24c-0.83-3.34-1.44-6.44-2.38-9.44c-0.75-2.39-3.22-3.48-5.61-2.83c-2.16,0.59-3.68,2.79-3.22,5.11
		C151.71,181.39,152.55,184.43,153.35,187.7z"/>
	<path class="st3" d="M286.42,158.93c0,2.96,0,5.82,0,8.85c-21.56,0-43.03,0-64.67,0c0-2.91,0-5.76,0-8.85
		C243.15,158.93,264.62,158.93,286.42,158.93z"/>
	<path class="st3" d="M254.04,255.99c-0.03,7.71-6.35,13.96-14.05,13.88c-7.56-0.07-13.76-6.32-13.75-13.88
		c0-7.68,6.32-13.92,14.05-13.88C247.82,242.15,254.07,248.46,254.04,255.99z M244.75,255.95c-0.02-2.48-2.1-4.55-4.59-4.57
		c-2.48-0.02-4.59,2.03-4.65,4.52c-0.06,2.6,2.13,4.79,4.73,4.72C242.74,260.54,244.77,258.43,244.75,255.95z"/>
	<path class="st3" d="M240.05,228.18c-7.68-0.05-13.92-6.43-13.81-14.12c0.11-7.55,6.38-13.66,13.99-13.65
		c7.54,0.01,13.81,6.29,13.81,13.83C254.04,221.95,247.74,228.22,240.05,228.18z M244.75,214.3c0.01-2.48-2.05-4.57-4.54-4.62
		c-2.48-0.05-4.61,1.98-4.7,4.47c-0.09,2.6,2.09,4.81,4.68,4.77C242.69,218.87,244.74,216.79,244.75,214.3z"/>
	<path class="st3" d="M291.15,255.89c0.02,7.72-6.26,14.01-13.95,13.98c-7.57-0.02-13.81-6.24-13.85-13.78
		c-0.04-7.69,6.23-13.97,13.95-13.98C284.85,242.11,291.14,248.36,291.15,255.89z M281.87,256.09c0.06-2.47-1.96-4.61-4.45-4.71
		c-2.47-0.1-4.65,1.9-4.78,4.38c-0.14,2.59,1.99,4.85,4.59,4.86C279.71,260.62,281.81,258.58,281.87,256.09z"/>
	<path class="st3" d="M254.04,297.66c-0.01,7.71-6.32,13.97-14.01,13.92c-7.56-0.06-13.78-6.29-13.79-13.85
		c-0.01-7.69,6.29-13.94,14.01-13.92C247.79,283.83,254.05,290.12,254.04,297.66z M240.04,302.31c2.48,0.05,4.62-1.97,4.71-4.46
		c0.1-2.58-2.07-4.81-4.67-4.78c-2.49,0.03-4.56,2.11-4.56,4.6C235.51,300.17,237.55,302.27,240.04,302.31z"/>
	<path class="st3" d="M277.64,283.81c7.52,0.15,13.66,6.57,13.52,14.11c-0.15,7.69-6.58,13.84-14.28,13.65
		c-7.54-0.19-13.63-6.54-13.52-14.12C263.47,289.8,269.9,283.66,277.64,283.81z M277.25,293.08c-2.48,0-4.58,2.06-4.62,4.54
		c-0.04,2.49,1.98,4.61,4.47,4.69c2.6,0.08,4.8-2.09,4.77-4.69C281.83,295.14,279.74,293.08,277.25,293.08z"/>
	<path class="st3" d="M254.04,339.36c-0.01,7.71-6.32,13.97-14.02,13.91c-7.57-0.06-13.77-6.3-13.78-13.85
		c-0.01-7.68,6.29-13.94,14.02-13.91C247.8,325.54,254.06,331.83,254.04,339.36z M244.75,339.25c-0.08-2.48-2.21-4.51-4.69-4.47
		c-2.49,0.04-4.55,2.14-4.54,4.62c0,2.61,2.25,4.75,4.83,4.61C242.84,343.88,244.83,341.73,244.75,339.25z"/>
	<path class="st3" d="M291.15,339.28c0.03,7.72-6.25,14.01-13.94,14c-7.57-0.02-13.82-6.22-13.86-13.77
		c-0.05-7.69,6.22-13.98,13.94-13.99C284.83,325.5,291.13,331.75,291.15,339.28z M281.87,339.28c-0.06-2.48-2.17-4.52-4.66-4.5
		c-2.49,0.02-4.56,2.1-4.58,4.59c-0.02,2.6,2.21,4.76,4.8,4.65C279.92,343.9,281.92,341.76,281.87,339.28z"/>
	<path class="st3" d="M291.14,214.38c-0.04,7.56-6.26,13.77-13.84,13.8c-7.69,0.03-13.97-6.25-13.96-13.97
		c0.01-7.53,6.3-13.8,13.83-13.8C284.91,200.41,291.18,206.69,291.14,214.38z M281.87,214.4c0.05-2.49-1.96-4.61-4.46-4.71
		c-2.6-0.1-4.81,2.06-4.78,4.66c0.03,2.49,2.1,4.55,4.6,4.56C279.71,218.93,281.82,216.88,281.87,214.4z"/>
	<path class="st3" d="M328.26,214.36c-0.03,7.68-6.38,13.9-14.1,13.83c-7.53-0.07-13.75-6.4-13.7-13.94
		c0.06-7.71,6.4-13.93,14.1-13.83C322.13,200.52,328.29,206.78,328.26,214.36z M314.14,218.91c2.48,0.12,4.67-1.83,4.84-4.32
		c0.17-2.48-1.76-4.7-4.24-4.9c-2.59-0.21-4.89,1.84-4.99,4.45C309.66,216.63,311.65,218.79,314.14,218.91z"/>
	<path class="st3" d="M314.75,242.12c7.55,0.19,13.63,6.54,13.51,14.12c-0.12,7.66-6.56,13.81-14.29,13.64
		c-7.52-0.16-13.65-6.57-13.51-14.12C300.6,248.08,307.04,241.93,314.75,242.12z M318.98,256.02c0.01-2.49-2.03-4.59-4.52-4.63
		c-2.61-0.05-4.78,2.13-4.71,4.74c0.06,2.49,2.18,4.52,4.67,4.49C316.91,260.58,318.97,258.51,318.98,256.02z"/>
	<path class="st3" d="M300.46,297.67c0.04-7.71,6.37-13.94,14.08-13.85c7.57,0.08,13.74,6.34,13.72,13.91
		c-0.02,7.68-6.35,13.92-14.08,13.86C306.64,311.53,300.42,305.21,300.46,297.67z M314.47,293.09c-2.5-0.06-4.62,1.94-4.73,4.43
		c-0.11,2.59,2.04,4.81,4.65,4.79c2.49-0.02,4.56-2.08,4.59-4.57C319,295.25,316.97,293.14,314.47,293.09z"/>
	<path class="st3" d="M328.26,339.45c-0.03,7.68-6.37,13.91-14.09,13.84c-7.53-0.07-13.76-6.39-13.71-13.93
		c0.05-7.71,6.39-13.93,14.09-13.84C322.12,325.61,328.28,331.87,328.26,339.45z M314.33,344.01c2.49,0.02,4.59-2.02,4.65-4.51
		c0.06-2.49-1.95-4.62-4.44-4.72c-2.61-0.1-4.81,2.04-4.8,4.65C309.76,341.93,311.83,343.99,314.33,344.01z"/>
	<path class="st3" d="M300.58,190.93c0-3.06,0-5.91,0-8.92c9.17,0,18.2,0,27.47,0c0,2.86,0,5.79,0,8.92
		C319.02,190.93,309.91,190.93,300.58,190.93z"/>
	<path class="st3" d="M268.1,190.93c0-3.06,0-5.91,0-8.91c6.07,0,12.02,0,18.19,0c0,2.86,0,5.78,0,8.91
		C280.36,190.93,274.35,190.93,268.1,190.93z"/>
	<path class="st3" d="M244.64,182.03c0,2.98,0,5.83,0,8.89c-2.92,0-5.84,0-8.95,0c0-2.89,0-5.81,0-8.89
		C238.59,182.03,241.44,182.03,244.64,182.03z"/>
</g>
</svg>
