<?xml version="1.0" encoding="utf-8"?>
<!-- Generator: Adobe Illustrator 24.1.2, SVG Export Plug-In . SVG Version: 6.00 Build 0)  -->
<svg version="1.1" id="Calque_1" xmlns="http://www.w3.org/2000/svg" xmlns:xlink="http://www.w3.org/1999/xlink" x="0px" y="0px"
	 viewBox="0 0 311 452" style="enable-background:new 0 0 311 452;" xml:space="preserve">
<style type="text/css">
	.st0{fill:#BDBFC1;}
	.st1{fill:#ECB734;}
</style>
<path class="st0" d="M219.8,256.26l7.98,0.97l8.67-8.47l-3.21-4.5l-25.42-40.29c15.29-14.82,24.81-35.56,24.81-58.48
	c0-44.93-36.57-81.48-81.51-81.48H96.21v120.39l17.8-32.06V81.82h37.11c35.13,0,63.71,28.57,63.71,63.69
	c0,16.57-6.36,31.68-16.77,43.02l-43.06-68.24l-56.79,106.7h52.9c15.6,0,30.18-4.4,42.58-12.02l25.05,39.71L219.8,256.26z
	 M184.21,199.91c-9.65,5.88-20.98,9.28-33.08,9.28h-23.27l28.46-53.48L184.21,199.91z"/>
<g>
	<g>
		<path class="st1" d="M7.53,370.45c0-6.84,1.32-13.34,3.97-19.5c2.65-6.16,6.3-11.61,10.95-16.35c4.65-4.74,10.04-8.46,16.15-11.15
			c6.11-2.69,12.73-4.04,19.85-4.04c6.93,0,13.48,1.35,19.64,4.04c6.16,2.69,11.61,6.41,16.36,11.15
			c4.74,4.74,8.44,10.19,11.09,16.35c2.65,6.16,3.97,12.66,3.97,19.5c0,7.03-1.32,13.59-3.97,19.7
			c-2.65,6.11-6.37,11.52-11.16,16.21c-4.79,4.7-10.25,8.35-16.36,10.95c-6.11,2.6-12.69,3.9-19.71,3.9c-7.03,0-13.6-1.3-19.71-3.9
			c-6.11-2.6-11.5-6.2-16.15-10.81c-4.65-4.61-8.31-9.99-10.95-16.15C8.85,384.2,7.53,377.56,7.53,370.45z M23.96,370.31
			c0,5.02,0.89,9.67,2.67,13.96c1.78,4.29,4.27,8.05,7.46,11.29c3.19,3.24,6.91,5.77,11.16,7.59c4.24,1.83,8.78,2.74,13.62,2.74
			c4.84,0,9.33-0.91,13.48-2.74c4.15-1.82,7.76-4.35,10.81-7.59c3.06-3.24,5.48-7,7.25-11.29c1.78-4.29,2.67-8.89,2.67-13.82
			c0-5.02-0.91-9.67-2.74-13.96c-1.83-4.29-4.29-8.07-7.39-11.36c-3.1-3.28-6.75-5.84-10.95-7.66c-4.2-1.82-8.72-2.74-13.55-2.74
			c-4.84,0-9.36,0.94-13.55,2.8c-4.2,1.87-7.87,4.43-11.02,7.66c-3.15,3.24-5.59,7.03-7.32,11.36
			C24.82,360.89,23.96,365.48,23.96,370.31z"/>
		<path class="st0" d="M130.73,420.12V320.5h28.34c9.86,0,18.27,1.5,25.26,4.52c6.98,3.01,12.59,6.98,16.84,11.9
			c4.24,4.93,7.37,10.42,9.38,16.49c2.01,6.07,3.01,12.16,3.01,18.27c0,7.48-1.32,14.19-3.97,20.12s-6.25,11.01-10.81,15.26
			c-4.56,4.24-9.86,7.48-15.88,9.71c-6.02,2.24-12.32,3.35-18.89,3.35H130.73z M146.74,404.79h14.1c5.38,0,10.29-0.75,14.71-2.26
			c4.43-1.5,8.23-3.69,11.43-6.57c3.19-2.87,5.68-6.43,7.46-10.67s2.67-9.14,2.67-14.71c0-6.2-1.03-11.52-3.08-15.94
			c-2.05-4.42-4.75-8.03-8.08-10.81c-3.33-2.78-6.96-4.81-10.88-6.09c-3.93-1.28-7.8-1.92-11.63-1.92h-16.7V404.79z"/>
		<path class="st0" d="M224.35,420.12l44.21-103.72h0.96l44.08,103.72H295.4l-31.21-78.82l11.5-7.53l-35.59,86.34H224.35z
			 M252.28,383.17h33.95l5.48,13.41h-44.35L252.28,383.17z"/>
	</g>
</g>
<path class="st1" d="M286.03,88.95c-7.36-17.35-17.9-32.92-31.32-46.3c-13.42-13.37-29.05-23.88-46.45-31.21
	C190.37,3.9,171.38,0.06,151.8,0l0,0c0,0,0,0,0,0c0,0,0,0,0,0l0,0c-19.57,0.06-38.56,3.9-56.45,11.45
	c-17.41,7.34-33.03,17.84-46.45,31.21c-13.42,13.37-23.96,28.95-31.32,46.3c-7.62,17.96-11.49,37.04-11.49,56.7
	s3.87,38.74,11.49,56.7c7.36,17.35,17.9,32.92,31.32,46.3c13.42,13.37,29.05,23.88,46.45,31.21c17.89,7.54,36.88,11.39,56.45,11.44
	v0c0,0,0,0,0,0c0,0,0,0,0,0v0c19.57-0.06,38.56-3.9,56.45-11.44c17.41-7.34,33.03-17.84,46.45-31.21
	c13.42-13.37,23.96-28.95,31.32-46.3c7.62-17.96,11.49-37.04,11.49-56.7S293.65,106.92,286.03,88.95z M242.09,236.07
	c-24.13,24.05-56.18,37.33-90.28,37.45c-34.11-0.11-66.15-13.4-90.28-37.45c-24.23-24.15-37.58-56.26-37.58-90.42
	s13.35-66.26,37.58-90.42c24.13-24.05,56.18-37.33,90.28-37.45c34.11,0.11,66.15,13.4,90.28,37.45
	c24.23,24.15,37.58,56.26,37.58,90.42S266.32,211.92,242.09,236.07z"/>
</svg>
